{
	"info": {
		"_postman_id": "684781ab-b424-46f5-a889-09977bec20f2",
		"name": "randi_firmansyah_go_product",
		"schema": "https://schema.getpostman.com/json/collection/v2.1.0/collection.json"
	},
	"item": [
		{
			"name": "Product",
			"item": [
				{
					"name": "get_All",
					"request": {
						"method": "GET",
						"header": [],
						"url": {
							"raw": "http://localhost:5000/product",
							"protocol": "http",
							"host": [
								"localhost"
							],
							"port": "5000",
							"path": [
								"product"
							]
						}
					},
					"response": []
				},
				{
					"name": "post_Product",
					"request": {
						"method": "POST",
						"header": [],
						"body": {
							"mode": "raw",
							"raw": "{\r\n    \"nama\":\"magnum\",\r\n    \"harga\":20000,\r\n    \"qty\":10,\r\n    \"image\":\"https://1757140519.rsc.cdn77.org/blog/wp-content/uploads/2018/05/1-google-logo.png\"\r\n}",
							"options": {
								"raw": {
									"language": "json"
								}
							}
						},
						"url": {
							"raw": "http://localhost:5000/product",
							"protocol": "http",
							"host": [
								"localhost"
							],
							"port": "5000",
							"path": [
								"product"
							]
						}
					},
					"response": []
				},
				{
					"name": "update_product",
					"request": {
						"method": "PUT",
						"header": [],
						"body": {
							"mode": "raw",
							"raw": "{\r\n    \"nama\":\"mesin\",\r\n    \"harga\":20000,\r\n    \"qty\":10,\r\n    \"image\":\"https://1757140519.rsc.cdn77.org/blog/wp-content/uploads/2018/05/1-google-logo.png\"\r\n}",
							"options": {
								"raw": {
									"language": "json"
								}
							}
						},
						"url": {
							"raw": "http://localhost:5000/product/2",
							"protocol": "http",
							"host": [
								"localhost"
							],
							"port": "5000",
							"path": [
								"product",
								"2"
							]
						}
					},
					"response": []
				},
				{
					"name": "delete_product",
					"request": {
						"method": "DELETE",
						"header": [],
						"url": {
							"raw": "http://localhost:5000/product/1",
							"protocol": "http",
							"host": [
								"localhost"
							],
							"port": "5000",
							"path": [
								"product",
								"1"
							]
						}
					},
					"response": []
				}
			]
		},
		{
			"name": "User",
			"item": [
				{
					"name": "get_All",
					"request": {
						"method": "GET",
						"header": [],
						"url": {
							"raw": "http://localhost:5000/user",
							"protocol": "http",
							"host": [
								"localhost"
							],
							"port": "5000",
							"path": [
								"user"
							]
						}
					},
					"response": []
				},
				{
					"name": "post_user",
					"request": {
						"method": "POST",
						"header": [],
						"body": {
							"mode": "raw",
							"raw": "{\r\n    \"nama\":\"magnum\",\r\n    \"username\":\"randi\",\r\n    \"password\":\"123\",\r\n    \"email\":\"hehe\",\r\n    \"no_hp\":\"123\",\r\n    \"image\":\"https://1757140519.rsc.cdn77.org/blog/wp-content/uploads/2018/05/1-google-logo.png\"\r\n}",
							"options": {
								"raw": {
									"language": "json"
								}
							}
						},
						"url": {
							"raw": "http://localhost:5000/user",
							"protocol": "http",
							"host": [
								"localhost"
							],
							"port": "5000",
							"path": [
								"user"
							]
						}
					},
					"response": []
				},
				{
					"name": "update_user",
					"request": {
						"method": "PUT",
						"header": [],
						"body": {
							"mode": "raw",
							"raw": "{\r\n    \"nama\":\"mesin\",\r\n    \"username\":\"randi\",\r\n    \"password\":\"123\",\r\n    \"email\":\"hehe\",\r\n    \"no_hp\":\"123\",\r\n    \"image\":\"https://1757140519.rsc.cdn77.org/blog/wp-content/uploads/2018/05/1-google-logo.png\"\r\n}",
							"options": {
								"raw": {
									"language": "json"
								}
							}
						},
						"url": {
							"raw": "http://localhost:5000/user/1",
							"protocol": "http",
							"host": [
								"localhost"
							],
							"port": "5000",
							"path": [
								"user",
								"1"
							]
						}
					},
					"response": []
				},
				{
					"name": "delete_user",
					"request": {
						"method": "DELETE",
						"header": [],
						"url": {
							"raw": "http://localhost:5000/user/1",
							"protocol": "http",
							"host": [
								"localhost"
							],
							"port": "5000",
							"path": [
								"user",
								"1"
							]
						}
					},
					"response": []
				}
			]
		}
	]
}